Calculate Area of Triangles and Polygons • area
…
calc_area <- function(df) {
 area <- df %>% mutate(row = row_number()) %>% 
  group_by(multipolygon_id, polygon_id, linestring_id) %>% 
   arrange(row) %>% 
  summarize(area = polygon_area(cbind(x, y))) %>% 
  ungroup() #%>% 
  area %>%  mutate(area = area, 
                   hole = c(-1, 1)[(pmax(c(1, diff(multipolygon_id)), c(1, diff(polygon_id))) == 1) + 1])
}
xsf <- silicate::inlandwaters
df <- sfheaders::sf_to_df(xsf)
(mmarea <- calc_area(df))
#> `summarise()` has grouped output by 'multipolygon_id', 'polygon_id'. You can
#> override using the `.groups` argument.
#> # A tibble: 189 × 5
#>    multipolygon_id polygon_id linestring_id          area  hole
#>              <dbl>      <dbl>         <dbl>         <dbl> <dbl>
#>  1               1          1             1   2203380098.     1
#>  2               2          1             1    103039733.     1
#>  3               3          1             1 750145539388.     1
#>  4               3          1             2    100909770.    -1
#>  5               3          1             3   2203380098.    -1
#>  6               3          1             4     45585186.    -1
#>  7               3          1             5     89780792.    -1
#>  8               3          1             6    110755146.    -1
#>  9               3          1             7     59287239.    -1
#> 10               3          1             8     66189369.    -1
#> # … with 179 more rows
…
